…
    ## # A tibble: 1 × 3
    ##   unique q_type Notes                        
    ##   <chr>  <chr>  <chr>                        
    ## 1 Q9     multi  Conferences attended by staff

Next, you would key into the master list in the following order: master
list –&gt; question type –&gt; question. The ‘$’ in the code below are
how R digs into a deeper level of some object, like a list or a
dataframe. Think of it as opening a door into an inner room of a house.

``` r
all_list$multi$Q9
```

    ## # A tibble: 27 × 3
    ##    value                                                                n   freq
    ##    <chr>                                                            <int>  <dbl>
    ##  1 American College Personnel Association (ACPA)                        3 0.0769
    ##  2 Career Leadership Collective                                         3 0.0769
    ##  3 Career Leadership Collective, ASCN, CLASIC                           1 0.0256
    ##  4 CEIA - Cooperative Education & Internship Association                1 0.0256
    ##  5 Delaware Valley Career Planners - a local group                      1 0.0256
    ##  6 Fellowship Advising (e.g., National Association of Fellowships …     6 0.154 
    ##  7 FGLI Consortium                                                      1 0.0256
    ##  8 Health Professions Advising (e.g., National Association of Advi…    19 0.487 
    ##  9 LACN :)                                                              1 0.0256
    ## 10 LACN, Handshake, National Student Employment Association             1 0.0256
    ## # … with 17 more rows
…
